<svg xmlns="http://www.w3.org/2000/svg" width="4.558" height="7.702" viewBox="0 0 4.558 7.702">
  <g id="Group_3482" data-name="Group 3482" transform="translate(-179.293 -196.293)">
    <path id="Path_1191" data-name="Path 1191" d="M3.144,0,0,3.144,3.144,6.287" transform="translate(180 197)" fill="none" stroke="#1d232a" stroke-linecap="round" stroke-width="1"/>
  </g>
</svg>
